%YAML 1.1
%TAG !u! tag:unity3d.com,2011:
--- !u!1045 &1
EditorBuildSettings:
  m_ObjectHideFlags: 0
  serializedVersion: 2
  m_Scenes:
  - enabled: 1
    path: Assets/Scenes/StartScene.unity
    guid: 2990f2733826fdd4694e7d030bdfa741
  - enabled: 1
    path: Assets/Scenes/Scene1.unity
    guid: d779257b9eadfba448191376e5c54ccb
  - enabled: 1
    path: Assets/Scenes/Scene2.unity
    guid: 4e684aad1eac1314cbc983cebeef5c1b
  m_configObjects: {}
